<?xml version="1.0" encoding="utf-8"?>
<!-- Generator: Adobe Illustrator 20.1.0, SVG Export Plug-In . SVG Version: 6.00 Build 0)  -->
<svg version="1.1" id="Layer_1" xmlns="http://www.w3.org/2000/svg" xmlns:xlink="http://www.w3.org/1999/xlink" x="0px" y="0px"
	 viewBox="0 0 100 100" style="enable-background:new 0 0 100 100;" xml:space="preserve">
<g>
	<g>
		<path d="M42.6,67.7c-6.7,0-13-2.6-17.7-7.3c-9.8-9.8-9.8-25.7,0-35.4c4.7-4.7,11-7.3,17.7-7.3c6.7,0,13,2.6,17.7,7.3
			c9.8,9.8,9.8,25.7,0,35.4C55.6,65.1,49.3,67.7,42.6,67.7L42.6,67.7z M42.6,21.6c-5.6,0-10.9,2.2-14.8,6.1
			c-8.2,8.2-8.2,21.5,0,29.7c4,4,9.2,6.1,14.8,6.1c5.6,0,10.9-2.2,14.8-6.1c8.2-8.2,8.2-21.5,0-29.7C53.5,23.8,48.2,21.6,42.6,21.6
			L42.6,21.6z M42.6,21.6"/>
	</g>
	<path d="M42.6,58.9c-4.3,0-8.4-1.7-11.5-4.8c-2.7-2.7-4.4-6.3-4.7-10.2c-0.1-1.1,0.7-2.1,1.9-2.2c1.1-0.1,2.1,0.7,2.2,1.9
		c0.2,2.9,1.5,5.6,3.5,7.6c2.3,2.3,5.4,3.6,8.6,3.6c3.3,0,6.3-1.3,8.6-3.6c4.8-4.8,4.8-12.5,0-17.2c-2.3-2.3-5.4-3.6-8.6-3.6
		c-3.3,0-6.3,1.3-8.6,3.6c-0.8,0.8-2.1,0.8-2.9,0c-0.8-0.8-0.8-2.1,0-2.9c3.1-3.1,7.2-4.8,11.5-4.8c4.3,0,8.4,1.7,11.5,4.8
		c6.3,6.3,6.3,16.7,0,23C51,57.2,46.9,58.9,42.6,58.9L42.6,58.9z M42.6,58.9"/>
	<path d="M65.3,67.4c-0.5,0-1-0.2-1.4-0.6l-6.4-6.4c-0.8-0.8-0.8-2.1,0-2.9c0.8-0.8,2.1-0.8,2.9,0l6.4,6.4c0.8,0.8,0.8,2.1,0,2.9
		C66.4,67.2,65.8,67.4,65.3,67.4L65.3,67.4z M65.3,67.4"/>
	<g>
		<path d="M78.4,78.4c2.7-2.7,2.7-6.9,0-9.6L73.6,64c-2.7-2.7-6.9-2.7-9.6,0c-2.6,2.7-2.6,6.9,0,9.6l4.8,4.8
			C71.5,81.1,75.8,81.1,78.4,78.4L78.4,78.4z M78.4,78.4"/>
		<path d="M73.6,82.4c-2.4,0-4.6-0.9-6.2-2.6l-4.8-4.8c-3.4-3.4-3.4-9,0-12.5c1.7-1.7,3.9-2.6,6.2-2.6c2.4,0,4.6,0.9,6.2,2.6
			l4.8,4.8c3.4,3.4,3.4,9,0,12.5C78.2,81.5,76,82.4,73.6,82.4L73.6,82.4z M68.8,64.1c-1.3,0-2.5,0.5-3.4,1.4c-1.9,1.9-1.9,4.9,0,6.7
			l4.8,4.8c0.9,0.9,2.1,1.4,3.4,1.4c1.3,0,2.5-0.5,3.4-1.4c1.9-1.9,1.9-4.9,0-6.7l-4.8-4.8C71.3,64.6,70.1,64.1,68.8,64.1L68.8,64.1
			z M68.8,64.1"/>
	</g>
</g>
</svg>
